{"failedCount":0,"prefixedPath":"classpath:examples\/reqres\/apiTest.feature","packageQualifiedName":"examples.reqres.apiTest","loopIndex":-1,"relativePath":"examples\/reqres\/apiTest.feature","scenarioResults":[{"sectionIndex":0,"stepResults":[{"result":{"nanos":960900,"startTime":1741204880898,"endTime":1741204880899,"millis":0.9609,"status":"passed"},"step":{"background":true,"line":3,"prefix":"*","index":0,"text":"url 'https:\/\/reqres.in\/'"},"stepLog":"17:01:20.813 karate.env system property was: null \n"},{"result":{"nanos":1357300,"startTime":1741204880910,"endTime":1741204880911,"millis":1.3573,"status":"passed"},"step":{"line":6,"prefix":"Given","index":0,"text":"path '\/api\/users?page=2'"}},{"result":{"nanos":1860773400,"startTime":1741204880911,"endTime":1741204882772,"millis":1860.7734,"status":"passed"},"step":{"line":7,"prefix":"When","index":1,"text":"method get"},"stepLog":"17:01:21.845 request:\n1 > GET https:\/\/reqres.in\/api\/users%3Fpage=2\n1 > Host: reqres.in\n1 > Connection: Keep-Alive\n1 > User-Agent: Apache-HttpClient\/4.5.14 (Java\/17.0.14)\n1 > Accept-Encoding: gzip,deflate\n\n\n17:01:22.769 response time in milliseconds: 909\n1 < 200\n1 < Date: Wed, 05 Mar 2025 20:01:22 GMT\n1 < Content-Type: application\/json; charset=utf-8\n1 < Transfer-Encoding: chunked\n1 < Connection: keep-alive\n1 < Report-To: {\"group\":\"heroku-nel\",\"max_age\":3600,\"endpoints\":[{\"url\":\"https:\/\/nel.heroku.com\/reports?ts=1741029389&sid=c4c9725f-1ab0-44d8-820f-430df2718e11&s=ADGrZgj4oZs82aNinYqjmiu8KMBvIrMmcIMQfF%2FqmPY%3D\"}]}\n1 < Reporting-Endpoints: heroku-nel=https:\/\/nel.heroku.com\/reports?ts=1741029389&sid=c4c9725f-1ab0-44d8-820f-430df2718e11&s=ADGrZgj4oZs82aNinYqjmiu8KMBvIrMmcIMQfF%2FqmPY%3D\n1 < Nel: {\"report_to\":\"heroku-nel\",\"max_age\":3600,\"success_fraction\":0.005,\"failure_fraction\":0.05,\"response_headers\":[\"Via\"]}\n1 < X-Powered-By: Express\n1 < Access-Control-Allow-Origin: *\n1 < Etag: W\/\"2fb-zJ\/iiAzm4zf7SruyfEtNo0xEDoY\"\n1 < Via: 1.1 vegur\n1 < Cache-Control: max-age=14400\n1 < CF-Cache-Status: HIT\n1 < Age: 6569\n1 < Vary: Accept-Encoding\n1 < Server: cloudflare\n1 < CF-RAY: 91bc34758b8d0a36-MIA\n1 < server-timing: cfL4;desc=\"?proto=TCP&rtt=128687&min_rtt=128054&rtt_var=49287&sent=7&recv=8&lost=0&retrans=0&sent_bytes=3107&recv_bytes=741&delivery_rate=31550&cwnd=252&unsent_bytes=0&cid=31f1de4bbb592dd4&ts=327&x=0\"\n{\"page\":1,\"per_page\":6,\"total\":12,\"total_pages\":2,\"data\":[{\"id\":1,\"name\":\"cerulean\",\"year\":2000,\"color\":\"#98B2D1\",\"pantone_value\":\"15-4020\"},{\"id\":2,\"name\":\"fuchsia rose\",\"year\":2001,\"color\":\"#C74375\",\"pantone_value\":\"17-2031\"},{\"id\":3,\"name\":\"true red\",\"year\":2002,\"color\":\"#BF1932\",\"pantone_value\":\"19-1664\"},{\"id\":4,\"name\":\"aqua sky\",\"year\":2003,\"color\":\"#7BC4C4\",\"pantone_value\":\"14-4811\"},{\"id\":5,\"name\":\"tigerlily\",\"year\":2004,\"color\":\"#E2583E\",\"pantone_value\":\"17-1456\"},{\"id\":6,\"name\":\"blue turquoise\",\"year\":2005,\"color\":\"#53B0AE\",\"pantone_value\":\"15-5217\"}],\"support\":{\"url\":\"https:\/\/contentcaddy.io?utm_source=reqres&utm_medium=json&utm_campaign=referral\",\"text\":\"Tired of writing endless social media content? Let Content Caddy generate it for you.\"}}\n\n"},{"result":{"nanos":11000,"startTime":1741204882772,"endTime":1741204882772,"millis":0.011,"status":"passed"},"step":{"line":8,"prefix":"Then","index":2,"text":"status 200"}}],"executorName":"pool-2-thread-1","line":5,"name":"Get All users","description":"","durationMillis":1863.1026,"startTime":1741204880450,"failed":false,"refId":"[1:5]","endTime":1741204882772,"exampleIndex":-1}],"callDepth":0,"name":"api","description":"","resultDate":"2025-03-05 05:01:22 p. m.","durationMillis":1863.1026,"passedCount":1}